MES,DIA,GRAVEDAD,PEATON,AUTOMOVIL,CAMPERO,CAMIONETA,MICRO,BUSETA,BUS,CAMION,VOLQUETA,MOTO,BICICLETA,OTRO,COMUNA,DIURNIO/NOCTURNO
1,4,0,0,1,0,0,0,0,0,0,0,1.0,0,0,La Ciudadela,0
1,4,1,0,1,0,0,0,0,0,0,0,1.0,0,0,La Ciudadela,1
1,6,0,0,1,0,0,0,0,0,0,0,0.0,0,0,La Ciudadela,0
1,1,1,0,0,0,0,0,0,0,0,0,1.0,0,0,La Ciudadela,1
1,6,0,0,2,0,0,0,0,0,0,0,0.0,0,0,La Ciudadela,0
1,7,1,0,0,0,0,0,0,0,0,0,2.0,0,0,La Ciudadela,0
1,3,0,0,1,0,1,0,0,0,0,0,0.0,0,0,La Ciudadela,0
1,7,0,0,1,0,0,0,0,0,0,0,1.0,0,0,La Ciudadela,0
1,7,1,2,0,0,0,0,0,0,0,0,1.0,0,0,La Ciudadela,0
2,6,1,1,0,0,0,0,0,0,0,0,1.0,0,0,La Ciudadela,0
2,7,0,0,1,0,1,0,0,0,0,0,0.0,0,0,La Ciudadela,0
2,2,0,0,1,0,1,0,0,0,0,0,0.0,0,0,La Ciudadela,0
2,6,0,0,0,0,0,0,1,0,0,0,1.0,0,0,La Ciudadela,0
2,3,0,0,2,0,0,0,0,0,0,0,0.0,0,0,La Ciudadela,0
2,4,0,0,0,0,0,0,1,0,0,0,0.0,0,0,La Ciudadela,0
2,1,0,0,2,0,0,0,0,0,0,0,0.0,0,0,La Ciudadela,0
2,4,1,0,1,0,0,0,0,0,0,0,1.0,0,0,La Ciudadela,0
3,6,0,0,2,0,0,0,0,0,0,0,0.0,0,0,La Ciudadela,0
3,1,0,0,2,0,0,0,0,0,0,0,0.0,0,0,La Ciudadela,1
3,1,0,0,1,0,0,0,0,0,0,0,0.0,0,0,La Ciudadela,1
3,1,0,0,2,0,0,0,0,0,0,0,0.0,0,0,La Ciudadela,0
3,7,0,0,1,0,0,0,0,0,0,0,1.0,0,0,La Ciudadela,1
3,2,0,0,1,0,0,0,0,0,0,0,1.0,0,0,La Ciudadela,0
3,3,0,0,0,0,0,0,2,0,0,0,0.0,0,0,La Ciudadela,0
3,3,1,1,0,0,0,0,1,0,0,0,0.0,0,0,La Ciudadela,0
3,5,0,0,1,0,0,0,0,0,0,0,1.0,0,0,La Ciudadela,1
4,1,0,0,1,1,0,0,0,0,0,0,0.0,0,0,La Ciudadela,1
4,1,1,0,0,0,0,0,0,0,0,0,2.0,0,0,La Ciudadela,0
4,1,0,0,1,1,0,0,0,0,0,0,0.0,0,0,La Ciudadela,1
4,1,0,0,1,0,1,0,0,0,0,0,0.0,0,0,La Ciudadela,1
4,3,0,0,0,1,0,0,0,0,1,0,0.0,0,0,La Ciudadela,0
4,7,2,0,0,0,0,0,0,0,0,0,1.0,0,0,La Ciudadela,0
4,2,1,1,0,0,0,0,0,0,0,0,1.0,0,0,La Ciudadela,1
5,1,1,1,1,0,0,0,0,0,0,0,0.0,0,0,La Ciudadela,0
5,1,0,0,2,0,0,0,0,0,0,0,0.0,0,0,La Ciudadela,1
5,5,1,0,0,0,0,0,0,0,0,0,1.0,0,0,La Ciudadela,0
5,7,0,0,2,0,0,0,0,0,0,0,0.0,0,0,La Ciudadela,1
5,3,0,0,1,0,0,0,0,0,0,0,1.0,0,0,La Ciudadela,0
5,4,0,0,1,0,0,0,0,0,0,0,0.0,0,0,La Ciudadela,1
5,1,1,0,0,0,2,0,0,0,0,0,0.0,0,0,La Ciudadela,0
5,6,1,1,1,0,0,0,0,0,0,0,0.0,0,0,La Ciudadela,0
5,4,0,0,1,0,0,0,0,0,0,0,0.0,0,0,La Ciudadela,1
6,6,1,2,1,0,0,0,0,0,0,0,0.0,0,0,La Ciudadela,0
6,2,1,0,0,0,1,0,0,0,0,0,1.0,0,0,La Ciudadela,1
6,2,0,0,0,0,2,0,0,0,0,0,0.0,0,0,La Ciudadela,1
7,1,0,0,1,0,0,0,0,0,0,0,1.0,0,0,La Ciudadela,1
7,1,1,0,1,0,0,0,0,0,0,0,1.0,0,0,La Ciudadela,1
7,3,0,0,2,0,0,0,0,0,0,0,0.0,0,0,La Ciudadela,0
8,4,0,0,1,0,0,0,0,1,0,0,0.0,0,0,La Ciudadela,1
8,5,0,0,1,0,0,1,0,0,0,0,0.0,0,0,La Ciudadela,0
8,2,1,1,0,0,0,0,0,0,0,0,1.0,0,0,La Ciudadela,1
8,4,0,0,1,0,0,0,0,0,0,0,1.0,0,0,La Ciudadela,0
8,4,1,1,0,0,0,0,0,0,0,0,1.0,0,0,La Ciudadela,0
8,5,0,0,1,0,1,0,0,0,0,0,0.0,0,0,La Ciudadela,0
8,3,0,0,1,0,0,0,0,1,0,0,0.0,0,0,La Ciudadela,1
8,4,1,0,1,0,0,0,0,0,0,0,1.0,0,0,La Ciudadela,0
8,6,0,0,1,0,1,0,0,0,0,0,0.0,0,0,La Ciudadela,0
8,5,0,0,2,0,0,0,0,0,0,0,0.0,0,0,La Ciudadela,0
8,6,0,0,1,0,0,0,0,0,0,0,0.0,0,1,La Ciudadela,1
8,3,1,0,0,0,0,0,0,0,0,0,2.0,0,0,La Ciudadela,1
8,5,0,0,2,0,0,0,0,0,0,0,0.0,0,0,La Ciudadela,1
8,6,0,0,1,0,0,0,1,0,0,0,0.0,0,0,La Ciudadela,1
9,3,0,0,1,0,0,0,0,0,0,0,0.0,0,0,La Ciudadela,1
9,2,0,0,1,0,0,0,0,0,0,0,1.0,0,0,La Ciudadela,0
9,4,0,0,1,0,0,0,1,0,0,0,0.0,0,0,La Ciudadela,1
9,7,2,1,0,0,0,0,0,0,0,0,1.0,0,0,La Ciudadela,1
10,2,0,0,2,0,0,0,0,0,0,0,0.0,0,0,La Ciudadela,1
10,2,0,0,1,0,0,0,0,0,0,0,1.0,0,0,La Ciudadela,1
10,2,0,0,2,0,0,0,0,0,0,0,0.0,0,0,La Ciudadela,0
10,6,1,1,2,0,0,0,0,0,0,0,0.0,0,0,La Ciudadela,0
10,3,0,0,2,0,0,0,0,0,0,0,0.0,0,0,La Ciudadela,1
10,1,1,0,0,0,1,0,0,0,0,0,1.0,0,0,La Ciudadela,0
10,4,0,0,1,0,1,0,0,0,0,0,0.0,0,0,La Ciudadela,0
11,6,0,0,0,0,0,1,0,1,0,0,0.0,0,0,La Ciudadela,1
11,2,0,0,2,0,0,0,0,0,0,0,0.0,0,0,La Ciudadela,1
11,7,1,0,0,0,0,0,0,0,0,0,2.0,0,0,La Ciudadela,0
11,3,0,0,1,0,1,0,0,0,0,0,0.0,0,0,La Ciudadela,0
11,5,0,0,2,0,0,0,0,0,0,0,0.0,0,0,La Ciudadela,1
11,7,0,0,2,0,0,0,0,0,0,0,0.0,0,0,La Ciudadela,1
11,7,0,0,0,0,0,0,0,0,0,0,3.0,0,0,La Ciudadela,1
11,2,1,0,0,0,1,0,0,0,0,0,1.0,0,0,La Ciudadela,0
11,2,0,0,2,0,0,0,0,0,0,0,0.0,0,0,La Ciudadela,0
11,7,1,1,0,0,0,0,0,0,0,0,1.0,0,0,La Ciudadela,0
11,7,1,0,0,0,0,0,0,0,0,0,1.0,0,0,La Ciudadela,1
11,1,0,0,0,1,1,0,0,0,0,0,0.0,0,0,La Ciudadela,1
11,2,0,0,3,0,0,0,0,0,0,0,0.0,0,0,La Ciudadela,1
11,4,0,0,1,0,0,0,1,0,0,0,0.0,0,0,La Ciudadela,0
12,4,0,0,1,0,0,0,0,1,0,0,0.0,0,0,La Ciudadela,1
12,6,0,0,0,0,2,0,0,0,0,0,0.0,0,0,La Ciudadela,0
12,6,1,0,1,0,0,0,0,0,0,0,1.0,0,0,La Ciudadela,0
12,1,0,0,1,0,0,0,0,0,1,0,0.0,0,0,La Ciudadela,0
12,3,0,0,0,0,0,0,0,1,0,1,0.0,0,0,La Ciudadela,0
12,7,1,0,1,0,0,0,0,0,0,0,1.0,0,0,La Ciudadela,1
12,5,0,0,2,0,0,0,0,0,0,0,0.0,0,0,La Ciudadela,0
1,5,0,0,2,0,0,0,0,0,0,0,0.0,0,0,La Ciudadela,0
1,7,0,0,2,0,0,0,0,0,0,0,0.0,0,0,La Ciudadela,0
1,6,0,0,1,0,0,0,1,0,0,0,0.0,0,0,La Ciudadela,0
1,6,0,0,1,0,0,0,1,0,0,0,0.0,0,0,La Ciudadela,1
1,5,0,0,1,0,1,0,0,0,0,0,0.0,0,0,La Ciudadela,0
1,3,1,0,1,0,1,0,0,0,0,0,0.0,0,0,La Ciudadela,0
2,7,1,0,1,0,0,0,0,0,0,0,1.0,0,0,La Ciudadela,0
2,3,1,1,0,0,0,0,0,0,0,0,1.0,0,0,La Ciudadela,0
2,5,1,1,0,0,0,0,0,0,0,0,1.0,0,0,La Ciudadela,1
2,5,0,0,2,0,0,0,0,0,0,0,0.0,0,0,La Ciudadela,0
2,7,1,1,0,0,0,0,0,0,0,0,1.0,0,0,La Ciudadela,0
2,1,0,0,0,0,1,0,0,0,1,0,0.0,0,0,La Ciudadela,1
2,2,0,0,1,0,1,0,0,0,0,0,0.0,0,0,La Ciudadela,0
2,3,0,0,1,1,0,0,0,0,0,0,0.0,0,0,La Ciudadela,1
2,4,0,0,1,0,0,0,0,0,0,0,1.0,0,0,La Ciudadela,1
2,4,1,0,1,0,0,0,0,0,0,0,1.0,0,0,La Ciudadela,0
2,4,1,0,1,0,0,0,0,0,0,0,1.0,0,0,La Ciudadela,0
2,5,0,0,2,0,0,0,0,0,0,0,0.0,0,0,La Ciudadela,1
3,2,1,0,1,0,0,0,0,0,0,0,1.0,0,0,La Ciudadela,0
3,7,0,0,3,0,0,0,0,0,0,0,0.0,0,0,La Ciudadela,1
3,7,0,0,4,1,0,0,0,0,0,0,0.0,0,0,La Ciudadela,1
3,7,0,0,2,0,0,0,0,0,0,0,0.0,0,0,La Ciudadela,0
3,2,0,0,0,0,0,0,2,0,1,0,0.0,0,0,La Ciudadela,0
3,7,0,0,2,0,0,0,1,0,0,0,1.0,0,0,La Ciudadela,1
3,6,0,0,0,1,0,0,1,0,0,0,0.0,0,0,La Ciudadela,0
3,7,0,0,1,0,0,0,1,0,0,0,0.0,0,0,La Ciudadela,0
4,3,0,0,1,0,0,0,0,0,0,0,1.0,0,0,La Ciudadela,1
4,5,1,0,0,0,0,0,0,0,0,0,2.0,0,0,La Ciudadela,0
4,5,0,0,0,1,1,0,0,0,0,0,0.0,0,0,La Ciudadela,1
4,7,1,0,2,0,0,0,1,0,0,0,0.0,0,0,La Ciudadela,0
4,2,0,0,2,0,0,0,0,0,0,0,0.0,0,0,La Ciudadela,0
4,6,1,0,0,0,0,0,0,0,0,0,2.0,0,0,La Ciudadela,0
4,7,1,0,2,0,0,0,0,0,0,0,0.0,0,0,La Ciudadela,0
4,1,0,0,1,0,0,0,0,0,0,0,0.0,0,0,La Ciudadela,0
4,2,1,1,0,0,0,0,0,0,0,0,1.0,0,0,La Ciudadela,0
4,4,2,0,0,0,0,1,0,0,0,0,1.0,0,0,La Ciudadela,1
4,1,0,0,1,1,0,0,0,0,0,0,0.0,0,0,La Ciudadela,0
5,4,0,0,2,0,0,0,0,0,0,0,0.0,0,0,La Ciudadela,0
5,2,0,0,1,0,0,0,0,0,0,0,2.0,0,0,La Ciudadela,0
5,5,0,0,1,0,0,1,0,0,0,0,0.0,0,0,La Ciudadela,1
5,7,1,0,0,0,0,0,0,0,0,0,2.0,0,0,La Ciudadela,0
5,4,1,0,0,0,0,0,0,0,0,0,2.0,0,0,La Ciudadela,0
5,6,1,1,1,0,0,0,0,0,0,0,0.0,0,0,La Ciudadela,0
5,7,0,0,1,0,1,0,0,0,0,0,0.0,0,0,La Ciudadela,0
5,4,0,0,0,0,1,1,0,0,0,0,0.0,0,0,La Ciudadela,0
5,7,0,0,0,0,2,0,0,0,0,0,0.0,0,0,La Ciudadela,0
6,1,0,0,1,0,0,0,0,0,0,0,1.0,0,0,La Ciudadela,0
6,2,1,0,1,0,0,0,0,0,0,0,1.0,0,0,La Ciudadela,1
6,5,1,0,1,0,0,0,0,0,0,0,0.0,0,1,La Ciudadela,0
6,7,0,0,2,0,0,0,0,0,0,0,0.0,0,0,La Ciudadela,1
6,1,0,0,0,0,1,0,0,1,0,0,0.0,0,0,La Ciudadela,0
7,6,1,0,1,0,0,0,0,0,0,0,1.0,0,0,La Ciudadela,0
7,7,1,0,1,0,0,0,0,0,0,0,1.0,0,0,La Ciudadela,1
7,7,0,0,0,0,0,0,0,0,0,0,2.0,0,0,La Ciudadela,1
7,4,1,0,1,0,0,0,0,0,0,0,1.0,0,0,La Ciudadela,0
7,6,1,0,1,0,0,0,0,0,0,0,1.0,0,0,La Ciudadela,1
7,2,0,0,1,0,0,0,0,0,1,0,0.0,0,0,La Ciudadela,0
7,3,0,0,0,0,1,0,0,0,1,0,0.0,0,0,La Ciudadela,0
7,4,0,0,0,0,2,0,0,0,0,0,0.0,0,0,La Ciudadela,0
8,4,0,0,2,0,0,0,0,0,0,0,0.0,0,0,La Ciudadela,0
8,4,0,0,2,0,0,0,0,0,0,0,0.0,0,0,La Ciudadela,0
8,5,0,0,2,0,0,0,0,0,0,0,0.0,0,0,La Ciudadela,0
8,5,1,0,0,0,0,0,0,0,0,0,2.0,0,0,La Ciudadela,0
9,3,0,0,1,0,1,0,0,0,0,0,0.0,0,0,La Ciudadela,0
9,6,1,0,0,0,0,0,0,0,1,0,1.0,0,0,La Ciudadela,1
9,1,1,0,1,0,0,0,0,0,0,0,1.0,0,0,La Ciudadela,0
9,2,0,0,0,0,0,0,1,0,0,0,1.0,0,0,La Ciudadela,1
9,4,0,0,1,0,1,0,0,0,0,0,0.0,0,0,La Ciudadela,1
9,2,1,0,0,0,0,0,0,0,0,0,1.0,0,0,La Ciudadela,1
9,5,1,0,0,0,0,0,0,0,0,0,1.0,0,1,La Ciudadela,1
10,4,0,0,1,0,1,0,0,0,0,0,0.0,0,0,La Ciudadela,1
10,4,0,0,1,0,0,1,0,0,0,0,0.0,0,0,La Ciudadela,0
10,6,0,0,0,0,2,0,0,0,0,0,0.0,0,0,La Ciudadela,0
10,6,1,0,1,0,0,0,0,0,0,0,1.0,0,0,La Ciudadela,0
10,5,0,0,2,0,0,0,0,0,0,0,0.0,0,0,La Ciudadela,1
10,3,1,0,0,0,0,0,0,0,0,0,2.0,0,0,La Ciudadela,0
10,4,1,1,0,0,0,0,0,0,0,0,1.0,0,0,La Ciudadela,1
11,7,0,0,1,0,0,0,0,0,0,0,0.0,0,0,La Ciudadela,1
11,1,0,0,1,0,1,0,0,0,0,0,0.0,0,0,La Ciudadela,0
11,3,0,0,0,0,0,0,0,0,1,0,1.0,0,0,La Ciudadela,0
11,2,1,1,0,0,0,0,0,0,0,0,1.0,0,0,La Ciudadela,0
11,6,0,0,1,0,0,0,0,0,0,0,1.0,0,0,La Ciudadela,1
11,5,1,1,0,0,0,0,0,1,0,0,0.0,0,0,La Ciudadela,0
11,3,1,0,1,0,0,0,0,0,0,0,1.0,0,0,La Ciudadela,0
12,2,1,0,0,0,0,0,0,0,0,0,1.0,0,0,La Ciudadela,1
12,1,1,0,1,0,0,0,0,0,0,0,1.0,0,0,La Ciudadela,0
12,2,0,0,2,0,0,0,0,0,0,0,0.0,0,0,La Ciudadela,0
12,7,0,0,2,0,0,0,0,0,0,0,0.0,0,0,La Ciudadela,1
12,6,1,0,0,0,1,0,0,0,0,0,1.0,0,0,La Ciudadela,0
12,6,1,0,0,0,1,0,0,0,0,0,1.0,0,0,La Ciudadela,1
1,1,1,0,1,0,0,0,0,0,0,0,1.0,0,0,La Ciudadela,0
1,1,0,0,1,1,0,0,0,0,0,0,0.0,0,0,La Ciudadela,1
1,5,0,0,1,0,0,0,0,0,0,0,1.0,0,0,La Ciudadela,0
1,6,0,0,1,0,0,0,0,0,0,0,1.0,0,0,La Ciudadela,0
1,1,0,0,2,0,0,0,0,0,0,0,0.0,0,0,La Ciudadela,0
1,3,1,0,0,0,1,0,0,0,0,0,1.0,0,0,La Ciudadela,1
1,1,1,0,1,0,0,0,0,0,0,0,1.0,0,0,La Ciudadela,1
1,2,0,0,1,0,1,0,0,0,0,0,0.0,0,0,La Ciudadela,0
2,1,1,0,0,0,0,0,0,0,0,0,2.0,0,0,La Ciudadela,0
2,2,1,0,1,0,0,0,0,0,0,0,1.0,0,0,La Ciudadela,1
2,5,0,0,1,0,0,0,0,0,0,0,0.0,0,0,La Ciudadela,0
2,7,1,0,1,0,0,0,0,0,0,0,2.0,0,0,La Ciudadela,0
2,2,1,0,0,0,1,0,0,0,0,0,1.0,0,0,La Ciudadela,0
2,4,0,0,0,0,1,0,0,0,0,0,1.0,0,0,La Ciudadela,1
3,3,1,0,1,0,0,0,0,0,0,0,1.0,0,0,La Ciudadela,0
3,5,0,0,2,0,0,0,0,0,0,0,0.0,0,0,La Ciudadela,1
3,6,1,1,0,0,0,0,0,0,0,0,1.0,0,0,La Ciudadela,1
3,5,0,0,1,0,0,0,0,1,0,0,0.0,0,0,La Ciudadela,1
3,5,0,0,2,0,0,0,0,0,0,0,0.0,0,0,La Ciudadela,0
3,4,0,0,0,1,0,1,0,0,0,0,0.0,0,0,La Ciudadela,0
3,3,1,0,0,0,0,0,0,0,0,0,2.0,0,0,La Ciudadela,0
4,7,0,0,2,0,0,0,0,0,0,0,0.0,0,0,La Ciudadela,0
4,6,0,0,1,0,0,0,0,0,0,0,1.0,0,0,La Ciudadela,0
4,2,1,0,1,0,1,0,0,0,0,0,0.0,0,0,La Ciudadela,0
4,4,0,0,1,0,0,0,0,0,0,0,1.0,0,0,La Ciudadela,0
4,6,1,0,0,0,0,0,0,0,0,0,2.0,0,0,La Ciudadela,1
4,5,1,1,0,0,0,0,0,0,0,0,1.0,0,0,La Ciudadela,0
4,2,1,0,0,0,0,0,0,0,0,0,2.0,0,0,La Ciudadela,1
4,2,1,2,0,0,0,0,0,0,0,0,1.0,0,0,La Ciudadela,0
4,3,0,0,1,0,0,0,0,0,0,0,0.0,0,0,La Ciudadela,1
5,5,0,0,2,0,0,0,0,0,0,0,0.0,0,0,La Ciudadela,1
5,7,1,0,0,0,0,0,0,0,0,0,2.0,0,0,La Ciudadela,0
5,1,0,0,1,0,0,1,0,0,0,0,0.0,0,0,La Ciudadela,1
5,2,0,0,1,0,0,0,1,0,0,0,0.0,0,0,La Ciudadela,1
5,3,1,1,0,0,0,0,0,0,0,0,1.0,0,0,La Ciudadela,1
5,5,0,0,2,0,0,0,0,0,0,0,0.0,0,0,La Ciudadela,0
6,2,0,0,3,0,0,0,0,0,0,0,0.0,0,0,La Ciudadela,0
6,3,0,0,1,0,0,0,0,0,0,0,1.0,0,0,La Ciudadela,0
6,4,1,0,1,0,0,0,0,0,0,0,1.0,0,0,La Ciudadela,0
6,5,0,0,2,0,0,0,0,0,0,0,0.0,0,0,La Ciudadela,0
6,2,1,0,0,0,0,0,0,0,0,0,1.0,0,0,La Ciudadela,0
6,3,1,0,0,0,0,0,0,1,0,0,1.0,0,0,La Ciudadela,0
6,4,0,0,1,0,0,0,0,1,0,0,0.0,0,0,La Ciudadela,0
7,6,0,0,1,0,0,0,0,1,0,0,0.0,0,0,La Ciudadela,0
7,7,1,0,1,0,0,0,0,0,0,0,1.0,0,0,La Ciudadela,1
7,1,1,1,0,0,0,0,0,0,0,0,1.0,0,0,La Ciudadela,0
7,7,0,0,1,0,0,0,0,0,0,0,1.0,0,0,La Ciudadela,0
7,1,0,0,2,0,0,0,0,0,0,0,0.0,0,0,La Ciudadela,0
7,2,0,0,1,0,0,0,1,0,0,0,0.0,0,0,La Ciudadela,0
7,6,0,0,2,0,0,0,0,0,0,0,0.0,0,0,La Ciudadela,0
8,1,1,0,0,0,0,0,0,0,0,0,1.0,0,0,La Ciudadela,1
8,2,1,1,0,0,0,0,0,0,0,0,1.0,0,0,La Ciudadela,1
8,4,1,0,0,0,0,0,1,0,0,0,0.0,0,0,La Ciudadela,1
8,4,0,0,1,0,1,0,0,0,0,0,0.0,0,0,La Ciudadela,0
8,1,0,0,2,0,0,0,0,0,0,0,0.0,0,0,La Ciudadela,0
8,7,1,1,0,0,0,0,0,0,0,0,1.0,0,0,La Ciudadela,0
8,4,1,0,0,0,0,0,0,0,0,0,2.0,0,0,La Ciudadela,0
8,1,1,1,0,0,0,0,0,0,0,0,1.0,0,0,La Ciudadela,0
8,2,0,0,0,0,0,0,0,0,2,0,0.0,0,0,La Ciudadela,0
9,4,1,0,0,0,1,0,0,0,0,0,1.0,0,0,La Ciudadela,0
9,5,1,0,1,0,0,0,0,0,0,0,1.0,0,0,La Ciudadela,1
9,7,0,0,2,0,0,0,0,0,0,0,0.0,0,0,La Ciudadela,0
9,1,1,0,1,0,0,0,0,0,0,0,1.0,0,0,La Ciudadela,1
9,2,1,1,1,0,0,0,0,0,0,0,0.0,0,0,La Ciudadela,0
9,4,1,0,0,0,0,0,0,0,0,0,2.0,0,0,La Ciudadela,1
9,6,0,0,1,0,0,0,1,0,0,0,0.0,0,0,La Ciudadela,0
10,4,1,0,0,0,1,0,0,0,0,0,1.0,0,0,La Ciudadela,1
10,4,1,0,0,0,0,0,0,0,0,0,2.0,0,0,La Ciudadela,1
10,7,0,0,1,0,0,0,0,0,0,0,1.0,0,0,La Ciudadela,1
10,1,1,0,0,0,0,0,1,0,0,0,0.0,0,0,La Ciudadela,0
10,2,0,0,1,0,0,0,0,0,0,0,1.0,0,0,La Ciudadela,0
10,5,0,0,1,0,0,0,0,1,0,0,0.0,0,0,La Ciudadela,0
10,7,1,0,1,0,0,0,0,0,0,0,1.0,0,0,La Ciudadela,0
10,2,1,0,1,0,0,0,0,0,0,0,1.0,0,0,La Ciudadela,0
10,2,0,0,2,0,0,0,0,0,0,0,0.0,0,0,La Ciudadela,1
11,1,1,0,0,0,0,1,0,0,0,0,1.0,0,0,La Ciudadela,0
11,2,1,0,0,0,0,0,0,0,0,0,2.0,0,0,La Ciudadela,0
11,2,1,0,0,0,0,0,0,0,0,0,1.0,0,0,La Ciudadela,1
11,7,1,0,1,0,0,0,0,0,0,0,1.0,0,0,La Ciudadela,1
12,1,1,0,0,0,0,0,0,0,0,0,1.0,0,0,La Ciudadela,0
12,5,1,0,1,0,0,0,0,0,0,0,0.0,0,0,La Ciudadela,1
12,5,1,0,2,1,0,0,0,0,0,0,1.0,0,0,La Ciudadela,1
1,3,0,0,2,0,0,0,0,0,0,0,0.0,0,0,La Ciudadela,1
1,6,0,0,1,0,1,0,0,0,0,0,0.0,0,0,La Ciudadela,1
1,4,1,1,0,0,0,0,0,0,0,0,1.0,0,0,La Ciudadela,0
2,3,0,0,1,0,0,0,1,0,0,0,0.0,0,0,La Ciudadela,0
2,5,1,0,0,0,0,0,0,0,0,0,2.0,0,0,La Ciudadela,0
2,1,1,0,0,0,0,0,0,0,0,0,2.0,0,0,La Ciudadela,0
2,2,0,0,2,0,0,0,0,0,0,0,0.0,0,0,La Ciudadela,0
3,6,1,0,1,0,0,0,0,0,0,0,1.0,0,0,La Ciudadela,1
3,6,0,0,1,0,0,0,0,0,1,0,0.0,0,0,La Ciudadela,0
3,1,1,0,0,0,0,0,0,0,0,0,2.0,0,0,La Ciudadela,0
3,1,0,0,2,0,0,0,0,0,0,0,0.0,0,0,La Ciudadela,1
3,1,1,0,1,0,0,0,0,0,0,0,1.0,0,0,La Ciudadela,0
3,5,1,0,0,0,0,0,0,0,0,0,1.0,0,0,La Ciudadela,0
3,7,1,0,1,0,0,0,0,0,0,0,1.0,0,0,La Ciudadela,0
3,1,0,0,1,1,0,0,0,0,0,0,0.0,0,0,La Ciudadela,0
3,2,0,0,0,1,1,0,0,0,0,0,0.0,0,0,La Ciudadela,0
4,1,0,0,2,0,0,0,0,0,0,0,0.0,0,0,La Ciudadela,0
4,2,0,0,1,0,0,0,0,0,0,0,1.0,0,0,La Ciudadela,0
4,3,1,1,0,0,0,0,0,0,0,0,1.0,0,0,La Ciudadela,1
4,4,0,0,0,0,1,0,0,1,0,0,0.0,0,0,La Ciudadela,1
4,4,1,0,1,0,0,0,0,0,0,0,1.0,0,1,La Ciudadela,0
4,5,1,0,1,0,0,0,0,0,0,0,1.0,0,0,La Ciudadela,1
4,6,0,0,2,0,0,0,0,0,0,0,0.0,0,0,La Ciudadela,1
4,7,0,0,0,0,1,0,1,0,0,0,1.0,0,0,La Ciudadela,0
4,7,0,0,1,0,0,0,0,0,1,0,0.0,0,0,La Ciudadela,0
4,6,0,0,1,0,0,0,0,0,1,0,0.0,0,0,La Ciudadela,0
4,7,0,0,1,0,1,0,0,0,0,0,0.0,0,0,La Ciudadela,0
4,2,0,0,1,0,0,0,1,0,0,0,0.0,0,0,La Ciudadela,0
4,3,1,0,1,0,0,0,0,0,0,0,1.0,0,0,La Ciudadela,0
4,5,1,0,0,0,0,0,0,0,0,0,2.0,0,0,La Ciudadela,1
4,1,1,2,0,0,0,0,0,0,0,0,1.0,0,0,La Ciudadela,1
4,2,0,0,1,0,1,0,0,0,0,0,0.0,0,0,La Ciudadela,0
4,2,1,0,1,0,0,0,0,0,0,0,1.0,0,0,La Ciudadela,0
4,4,0,0,2,0,0,0,0,0,0,0,0.0,0,0,La Ciudadela,0
5,1,0,0,1,0,0,0,0,1,0,0,0.0,0,0,La Ciudadela,0
5,4,0,0,1,1,0,0,0,0,0,0,0.0,0,0,La Ciudadela,0
5,4,0,0,1,0,0,1,0,0,0,0,0.0,0,0,La Ciudadela,0
5,1,1,0,0,0,1,0,0,0,0,0,1.0,0,0,La Ciudadela,0
5,2,1,0,1,0,0,0,0,0,0,0,1.0,0,0,La Ciudadela,1
5,5,0,0,1,0,0,1,0,0,0,0,0.0,0,0,La Ciudadela,1
5,2,0,0,2,0,0,0,0,0,0,0,0.0,0,0,La Ciudadela,0
5,3,1,1,0,0,0,0,0,0,0,0,1.0,0,0,La Ciudadela,1
5,6,0,0,1,0,1,0,0,0,0,0,0.0,0,0,La Ciudadela,0
6,4,0,0,0,0,0,1,0,0,0,0,1.0,0,0,La Ciudadela,0
6,1,0,0,1,0,0,0,0,0,0,0,1.0,0,0,La Ciudadela,1
6,4,0,0,1,0,0,0,0,0,1,0,0.0,0,0,La Ciudadela,0
6,1,1,1,0,0,1,0,0,0,0,0,0.0,0,0,La Ciudadela,0
6,2,0,0,1,1,0,0,0,0,0,0,0.0,0,0,La Ciudadela,0
6,2,1,1,0,0,0,0,0,0,0,0,1.0,0,0,La Ciudadela,0
6,2,0,0,1,0,1,0,0,0,0,0,0.0,0,0,La Ciudadela,0
7,4,0,0,0,0,0,0,1,1,0,0,0.0,0,0,La Ciudadela,1
7,4,0,0,0,0,2,0,0,0,0,0,1.0,0,0,La Ciudadela,0
7,6,0,0,1,0,0,0,0,1,0,0,0.0,0,0,La Ciudadela,0
7,5,1,0,1,0,0,0,0,0,0,0,0.0,0,0,La Ciudadela,0
8,5,1,0,1,0,0,0,0,0,0,0,1.0,0,0,La Ciudadela,0
8,5,0,0,0,1,0,0,0,0,0,0,1.0,0,0,La Ciudadela,0
8,1,0,0,2,0,0,0,0,0,0,0,0.0,0,0,La Ciudadela,0
8,3,1,1,0,0,0,0,0,0,0,0,1.0,0,0,La Ciudadela,0
8,4,1,1,0,0,0,0,0,0,0,0,1.0,0,0,La Ciudadela,0
8,2,0,0,1,0,1,0,0,0,0,0,0.0,0,0,La Ciudadela,0
8,2,1,0,1,0,0,0,0,0,0,0,1.0,0,0,La Ciudadela,1
8,2,1,0,1,0,0,0,0,0,0,0,1.0,0,0,La Ciudadela,1
9,3,0,0,1,0,0,0,0,0,0,0,0.0,0,0,La Ciudadela,0
9,5,1,0,0,0,1,0,0,0,0,0,1.0,0,0,La Ciudadela,1
9,6,1,0,2,0,0,0,0,0,0,0,0.0,0,0,La Ciudadela,0
9,7,0,0,0,1,0,0,0,0,0,0,1.0,0,0,La Ciudadela,0
9,1,1,0,0,0,0,0,0,0,0,0,2.0,0,0,La Ciudadela,1
9,2,1,0,1,0,0,0,0,0,0,0,1.0,0,0,La Ciudadela,1
9,3,0,0,2,0,0,0,0,0,0,0,0.0,0,0,La Ciudadela,0
9,3,1,1,0,0,0,0,0,0,0,0,1.0,0,0,La Ciudadela,0
9,3,1,0,1,0,0,0,0,0,0,0,1.0,0,0,La Ciudadela,0
9,7,1,1,0,0,0,0,0,0,0,0,2.0,0,0,La Ciudadela,1
9,5,0,0,1,0,0,0,0,0,0,0,0.0,1,0,La Ciudadela,0
9,7,0,0,2,0,0,0,0,0,0,0,0.0,0,0,La Ciudadela,1
9,1,0,0,1,0,0,0,0,0,0,0,0.0,0,0,La Ciudadela,0
9,2,0,0,0,0,1,0,0,1,0,0,0.0,0,0,La Ciudadela,0
9,3,1,0,1,0,0,0,0,0,0,0,1.0,0,0,La Ciudadela,0
9,3,0,0,1,0,0,0,1,0,0,0,0.0,0,0,La Ciudadela,0
9,2,0,0,0,0,1,0,0,0,0,0,1.0,0,0,La Ciudadela,0
9,4,1,0,0,0,0,0,0,0,0,0,1.0,0,0,La Ciudadela,1
10,6,0,0,2,0,0,0,0,0,0,0,0.0,0,0,La Ciudadela,0
10,2,0,0,0,0,1,0,0,0,0,0,1.0,0,0,La Ciudadela,0
10,2,1,0,1,0,0,0,0,0,0,0,1.0,0,0,La Ciudadela,0
10,2,0,0,1,0,0,0,0,0,1,0,0.0,0,0,La Ciudadela,1
10,7,0,0,3,0,0,0,0,0,0,0,0.0,0,0,La Ciudadela,1
10,7,0,0,1,0,0,0,0,0,0,0,1.0,0,0,La Ciudadela,0
10,4,1,0,1,0,0,0,0,0,0,0,1.0,0,0,La Ciudadela,0
10,1,1,0,0,0,0,0,0,0,0,0,2.0,0,0,La Ciudadela,0
10,7,1,1,1,0,0,0,0,0,0,0,0.0,0,0,La Ciudadela,1
11,6,1,1,1,0,0,0,0,0,0,0,0.0,0,0,La Ciudadela,0
11,6,1,0,0,0,0,0,0,0,0,0,1.0,0,0,La Ciudadela,1
11,6,1,0,0,0,1,0,0,0,0,0,1.0,0,0,La Ciudadela,1
11,7,1,0,1,0,0,0,0,0,0,0,1.0,0,0,La Ciudadela,0
11,5,1,0,0,0,2,0,0,0,0,0,1.0,0,0,La Ciudadela,0
11,6,0,0,1,0,1,0,0,0,0,0,0.0,0,0,La Ciudadela,1
11,7,1,0,1,0,0,0,0,0,0,0,1.0,0,0,La Ciudadela,1
11,4,1,0,0,0,0,0,0,0,0,0,1.0,1,0,La Ciudadela,1
11,4,0,0,1,0,0,0,0,0,0,0,1.0,0,0,La Ciudadela,0
11,6,0,0,0,0,0,0,0,0,0,0,3.0,0,0,La Ciudadela,0
11,2,0,0,1,0,0,0,0,1,0,0,0.0,0,0,La Ciudadela,0
12,6,0,0,1,0,0,0,0,1,0,0,0.0,0,0,La Ciudadela,1
12,2,1,1,0,0,0,0,0,0,0,0,1.0,0,0,La Ciudadela,0
12,3,1,0,1,0,0,0,0,0,0,0,1.0,0,0,La Ciudadela,1
12,4,0,0,1,0,0,0,0,0,1,0,0.0,0,0,La Ciudadela,0
12,7,0,0,1,0,0,0,0,0,1,0,0.0,0,0,La Ciudadela,0
12,2,1,0,1,0,0,0,0,0,0,0,1.0,0,0,La Ciudadela,0
1,7,0,0,0,0,2,0,0,0,0,0,0.0,0,0,La Ciudadela,0
1,1,0,0,1,0,0,0,0,0,0,0,1.0,0,0,La Ciudadela,1
1,6,1,0,0,0,0,0,0,0,0,0,2.0,0,0,La Ciudadela,0
1,7,0,0,2,0,0,0,0,0,0,0,0.0,0,0,La Ciudadela,0
1,2,1,0,1,0,0,0,0,0,0,0,1.0,0,0,La Ciudadela,0
1,6,1,0,1,0,1,0,0,0,0,0,1.0,0,0,La Ciudadela,0
2,3,0,0,1,0,0,0,0,0,0,0,1.0,0,0,La Ciudadela,0
2,1,0,0,1,0,0,0,0,0,0,0,0.0,0,0,La Ciudadela,0
2,5,1,0,0,0,0,0,0,0,0,0,1.0,0,0,La Ciudadela,1
2,3,0,0,1,0,0,0,1,0,0,0,0.0,0,0,La Ciudadela,0
2,6,0,0,0,0,1,0,0,0,1,0,0.0,0,0,La Ciudadela,0
3,7,1,0,1,0,0,0,0,0,0,0,1.0,0,0,La Ciudadela,0
3,7,0,0,2,0,0,0,0,0,0,0,0.0,0,0,La Ciudadela,0
3,7,1,0,1,0,0,0,0,0,0,0,1.0,0,0,La Ciudadela,1
3,1,0,0,1,0,1,0,0,0,0,0,0.0,0,0,La Ciudadela,0
3,2,1,0,1,0,0,0,0,0,0,0,1.0,0,0,La Ciudadela,0
3,7,0,0,1,0,0,0,0,0,1,0,0.0,0,0,La Ciudadela,0
3,4,0,0,0,0,1,0,0,0,0,0,1.0,0,0,La Ciudadela,0
3,4,1,0,1,0,0,0,0,0,0,0,1.0,0,0,La Ciudadela,0
3,7,0,0,2,0,0,0,0,0,0,0,0.0,0,0,La Ciudadela,0
3,2,0,0,0,1,0,1,0,0,0,0,0.0,0,0,La Ciudadela,0
3,2,0,0,1,0,0,0,0,0,0,0,1.0,0,0,La Ciudadela,0
3,2,1,0,0,0,0,0,0,0,0,0,2.0,0,0,La Ciudadela,0
3,5,0,0,0,1,0,0,0,1,0,0,0.0,0,0,La Ciudadela,1
4,3,0,0,2,0,0,0,0,0,0,0,0.0,0,0,La Ciudadela,0
4,7,1,0,0,0,1,0,0,0,0,0,1.0,0,0,La Ciudadela,0
4,1,0,0,1,0,0,0,0,0,0,0,1.0,0,0,La Ciudadela,1
4,5,1,1,0,0,0,0,0,0,0,0,1.0,0,0,La Ciudadela,0
4,2,0,0,2,0,0,0,0,0,0,0,0.0,0,0,La Ciudadela,0
4,2,0,0,1,0,0,0,0,0,0,0,1.0,0,0,La Ciudadela,1
4,2,1,0,0,0,1,0,0,0,0,0,1.0,0,0,La Ciudadela,1
4,6,1,1,0,0,0,0,0,0,0,0,1.0,0,0,La Ciudadela,0
4,7,0,0,1,0,0,0,0,0,0,1,0.0,0,0,La Ciudadela,0
4,7,0,0,2,0,0,0,0,0,0,0,0.0,0,0,La Ciudadela,0
5,1,0,0,1,0,1,0,0,0,0,0,0.0,0,0,La Ciudadela,0
5,4,0,0,2,0,0,0,0,0,0,0,0.0,0,0,La Ciudadela,0
5,4,1,1,0,0,0,0,0,0,0,0,1.0,0,0,La Ciudadela,0
5,5,1,0,1,0,0,0,0,0,0,0,1.0,0,0,La Ciudadela,0
5,6,0,0,0,0,1,0,1,0,0,0,0.0,0,0,La Ciudadela,0
5,2,0,0,1,0,1,0,0,0,0,0,0.0,0,0,La Ciudadela,0
5,2,0,0,2,0,0,0,0,0,0,0,0.0,0,0,La Ciudadela,0
6,3,1,0,1,0,0,0,0,0,0,0,1.0,0,0,La Ciudadela,0
6,1,1,0,0,0,0,0,0,0,0,0,1.0,0,0,La Ciudadela,0
6,1,1,2,0,0,0,0,0,0,0,0,1.0,0,0,La Ciudadela,1
6,2,1,0,1,0,0,0,0,0,0,0,1.0,0,0,La Ciudadela,0
6,2,0,0,1,0,0,0,1,0,0,0,0.0,0,0,La Ciudadela,1
6,4,0,0,2,0,0,0,0,0,0,0,0.0,0,0,La Ciudadela,1
6,5,0,0,1,0,1,0,0,0,0,0,0.0,0,0,La Ciudadela,0
7,3,0,0,0,0,0,0,0,0,0,0,1.0,0,1,La Ciudadela,1
7,7,0,0,1,0,0,0,0,0,0,0,1.0,0,0,La Ciudadela,0
7,7,0,0,1,1,0,0,0,0,0,0,0.0,0,0,La Ciudadela,0
7,3,0,0,1,0,1,0,0,0,0,0,0.0,0,0,La Ciudadela,0
7,4,1,0,1,0,0,0,0,0,0,0,1.0,0,0,La Ciudadela,0
7,7,0,0,2,0,0,0,0,0,0,0,0.0,0,0,La Ciudadela,0
8,2,0,0,0,1,0,0,0,0,0,0,1.0,0,0,La Ciudadela,0
8,2,0,0,2,0,0,0,0,0,0,0,0.0,0,0,La Ciudadela,0
8,6,0,0,1,0,0,0,0,0,0,0,1.0,0,0,La Ciudadela,0
8,5,0,0,1,0,0,0,0,0,0,0,1.0,0,0,La Ciudadela,1
9,6,1,1,0,0,0,0,0,0,0,0,1.0,0,0,La Ciudadela,0
9,7,1,0,2,0,0,0,0,0,0,0,0.0,0,0,La Ciudadela,0
9,2,1,0,0,0,0,0,0,0,0,0,2.0,0,0,La Ciudadela,0
9,6,1,0,1,0,0,0,0,0,0,0,1.0,0,0,La Ciudadela,0
9,5,1,0,0,0,0,0,0,0,0,0,2.0,0,0,La Ciudadela,0
9,6,1,0,0,0,0,0,0,0,0,0,2.0,0,0,La Ciudadela,1
9,4,0,0,1,0,0,0,0,0,0,0,1.0,0,0,La Ciudadela,0
10,1,1,0,1,0,1,0,0,0,0,0,0.0,0,0,La Ciudadela,1
10,4,0,0,1,0,0,0,0,0,1,0,0.0,0,0,La Ciudadela,0
10,5,1,1,0,0,0,0,0,0,0,0,1.0,0,0,La Ciudadela,1
10,5,1,1,0,0,0,0,0,0,0,0,1.0,0,0,La Ciudadela,0
10,2,0,0,1,0,0,0,0,0,0,0,1.0,0,0,La Ciudadela,1
10,5,0,0,2,0,0,0,0,0,0,0,0.0,0,0,La Ciudadela,0
10,6,1,0,1,0,0,0,0,0,0,0,1.0,0,0,La Ciudadela,0
10,5,1,1,0,0,0,0,0,0,0,0,1.0,0,0,La Ciudadela,0
10,6,1,0,1,0,0,0,0,0,0,0,1.0,0,0,La Ciudadela,1
10,4,1,0,0,0,0,0,0,0,0,0,1.0,0,0,La Ciudadela,1
11,7,0,0,0,0,1,0,0,0,0,0,1.0,0,0,La Ciudadela,0
11,2,0,0,1,0,1,0,0,0,0,0,0.0,0,0,La Ciudadela,0
11,6,1,0,0,0,1,0,0,0,0,0,1.0,0,0,La Ciudadela,1
11,4,0,0,1,0,1,0,0,0,0,0,0.0,0,0,La Ciudadela,0
12,6,0,0,0,1,0,0,0,0,0,0,1.0,0,0,La Ciudadela,0
12,6,1,0,0,0,0,0,0,0,0,0,2.0,0,0,La Ciudadela,1
12,5,0,0,4,0,1,0,0,0,0,0,0.0,0,0,La Ciudadela,0
12,3,1,0,1,0,0,0,0,0,0,0,1.0,0,0,La Ciudadela,1
12,3,0,0,1,0,0,0,0,0,1,0,0.0,0,0,La Ciudadela,0
1,3,0,0,2,0,0,0,0,0,0,0,0.0,0,0,La Ciudadela,0
1,4,1,0,1,0,0,0,0,0,0,0,1.0,0,0,La Ciudadela,0
1,4,0,0,1,0,1,0,0,0,0,0,0.0,0,0,La Ciudadela,1
1,7,1,0,0,0,0,0,0,0,0,0,3.0,0,0,La Ciudadela,0
1,2,0,0,1,0,0,0,0,0,0,0,1.0,0,0,La Ciudadela,0
1,4,0,0,2,0,0,0,0,0,0,0,0.0,0,0,La Ciudadela,0
2,3,0,0,2,0,0,0,0,0,0,0,0.0,0,0,La Ciudadela,0
2,7,1,0,1,0,0,0,0,0,0,0,1.0,0,0,La Ciudadela,1
2,4,0,0,1,0,0,0,0,0,0,0,0.0,0,0,La Ciudadela,0
2,5,0,0,0,0,0,0,1,0,1,0,0.0,0,0,La Ciudadela,0
2,7,1,0,1,0,0,0,0,0,0,0,0.0,1,0,La Ciudadela,1
2,7,0,0,1,0,0,0,0,1,0,0,0.0,0,0,La Ciudadela,1
2,1,0,0,1,0,1,0,0,0,0,0,0.0,0,0,La Ciudadela,0
3,6,0,0,1,0,0,1,0,0,0,0,0.0,0,0,La Ciudadela,1
3,1,1,1,0,0,0,0,0,0,0,0,1.0,0,0,La Ciudadela,0
3,4,0,0,2,0,1,0,0,0,0,0,0.0,0,0,La Ciudadela,0
3,6,0,0,2,0,0,0,0,0,0,0,0.0,0,0,La Ciudadela,0
3,1,1,0,1,0,0,0,0,0,0,0,1.0,0,0,La Ciudadela,0
3,2,0,0,1,0,0,0,0,0,0,0,1.0,0,0,La Ciudadela,0
3,5,0,0,1,0,0,0,0,0,0,0,1.0,0,0,La Ciudadela,1
3,4,1,0,0,0,0,0,0,0,0,0,1.0,0,0,La Ciudadela,1
3,5,0,0,2,0,1,0,0,0,0,0,0.0,0,0,La Ciudadela,0
4,2,1,1,0,0,0,0,0,0,0,0,1.0,0,0,La Ciudadela,1
4,3,0,0,1,0,0,0,1,0,0,0,0.0,0,0,La Ciudadela,0
4,7,1,0,1,0,0,0,0,0,0,0,1.0,0,0,La Ciudadela,1
4,5,1,1,0,0,0,0,0,0,0,0,0.0,1,0,La Ciudadela,0
4,7,1,0,1,0,0,0,0,0,0,0,1.0,0,0,La Ciudadela,1
4,4,1,0,1,0,0,0,0,0,0,0,1.0,0,0,La Ciudadela,0
5,1,0,0,1,0,0,1,0,0,0,0,0.0,0,0,La Ciudadela,0
5,5,1,1,1,0,0,0,0,0,0,0,0.0,0,0,La Ciudadela,1
5,6,1,0,0,0,1,0,0,0,0,0,1.0,0,0,La Ciudadela,0
5,6,1,0,1,0,0,0,0,0,0,0,1.0,0,0,La Ciudadela,0
5,1,1,0,1,0,0,0,0,0,0,0,1.0,0,0,La Ciudadela,0
5,1,1,0,0,1,0,0,0,0,0,0,1.0,0,0,La Ciudadela,0
5,4,1,0,1,0,0,0,0,0,0,0,1.0,0,0,La Ciudadela,0
5,4,0,0,1,0,0,0,0,0,0,0,1.0,0,0,La Ciudadela,0
5,6,0,0,1,1,0,0,0,0,0,0,0.0,0,0,La Ciudadela,0
5,7,1,0,1,0,0,0,0,0,0,0,1.0,0,0,La Ciudadela,0
6,5,0,0,0,0,0,0,1,0,0,0,0.0,0,0,La Ciudadela,0
6,3,1,0,0,0,0,0,0,0,0,0,1.0,0,1,La Ciudadela,1
6,7,0,0,1,0,1,0,0,0,0,0,0.0,0,0,La Ciudadela,1
6,7,0,0,1,0,0,0,0,0,0,0,1.0,0,0,La Ciudadela,0
6,4,1,0,0,0,0,0,0,1,0,0,1.0,0,0,La Ciudadela,0
7,7,0,0,1,0,1,0,0,0,0,0,0.0,0,0,La Ciudadela,0
7,7,1,0,0,0,0,0,0,0,1,0,1.0,0,0,La Ciudadela,0
7,7,1,0,1,0,0,0,0,0,0,0,1.0,0,0,La Ciudadela,1
7,2,0,0,1,0,1,0,0,0,0,0,0.0,0,0,La Ciudadela,1
7,4,0,0,3,0,0,0,0,0,0,0,0.0,0,0,La Ciudadela,0
7,7,0,0,2,0,0,0,0,0,0,0,0.0,0,0,La Ciudadela,1
8,3,1,0,1,0,0,0,0,0,0,0,1.0,0,0,La Ciudadela,0
8,4,0,0,2,0,0,0,0,0,0,0,0.0,0,0,La Ciudadela,0
8,3,0,0,2,0,0,0,0,0,0,0,0.0,0,0,La Ciudadela,0
8,2,0,0,1,0,0,0,1,0,0,0,0.0,0,0,La Ciudadela,0
8,4,0,0,2,0,0,0,0,0,0,0,0.0,0,0,La Ciudadela,1
8,5,0,0,2,0,0,0,0,0,0,0,0.0,0,0,La Ciudadela,0
8,6,1,0,0,0,0,0,0,1,0,0,0.0,0,0,La Ciudadela,0
8,3,1,0,0,0,0,0,1,0,0,0,1.0,0,0,La Ciudadela,0
8,3,0,0,1,0,1,0,0,0,0,0,0.0,0,0,La Ciudadela,0
9,6,0,0,1,0,0,0,1,0,0,0,0.0,0,0,La Ciudadela,0
9,7,1,0,1,0,0,0,0,0,0,0,1.0,0,0,La Ciudadela,0
9,6,0,0,2,0,0,0,0,0,0,0,0.0,0,0,La Ciudadela,1
9,3,1,1,0,0,0,0,0,0,0,0,1.0,0,0,La Ciudadela,0
9,3,1,1,0,0,0,0,0,0,0,0,1.0,0,0,La Ciudadela,1
9,7,0,0,2,0,0,0,0,0,0,0,0.0,0,0,La Ciudadela,0
9,7,1,0,0,0,0,0,0,0,0,0,2.0,0,0,La Ciudadela,0
9,3,1,0,2,0,0,0,0,0,0,0,0.0,0,0,La Ciudadela,1
9,3,1,0,1,0,0,0,0,0,0,0,0.0,0,0,La Ciudadela,1
9,6,1,0,0,0,0,0,0,0,0,0,2.0,0,0,La Ciudadela,0
10,2,0,0,0,0,0,1,1,0,0,0,0.0,0,0,La Ciudadela,0
10,6,1,1,0,0,0,0,0,0,0,0,1.0,0,0,La Ciudadela,0
10,2,1,0,0,0,1,0,0,0,0,0,1.0,0,0,La Ciudadela,1
10,2,0,0,1,0,0,0,0,0,0,0,1.0,0,0,La Ciudadela,1
10,3,0,0,1,0,0,0,1,0,0,0,0.0,0,0,La Ciudadela,0
10,3,0,0,2,0,0,0,0,0,0,0,0.0,0,0,La Ciudadela,0
10,5,1,0,1,0,0,0,0,0,0,0,1.0,0,0,La Ciudadela,0
10,6,1,1,0,0,0,0,0,0,0,0,1.0,0,0,La Ciudadela,1
10,2,0,0,0,0,0,0,0,0,0,0,2.0,0,0,La Ciudadela,0
10,3,1,0,1,0,0,0,0,0,0,0,1.0,0,0,La Ciudadela,1
10,3,1,1,1,0,0,0,0,0,0,0,0.0,0,0,La Ciudadela,1
10,4,0,0,1,0,0,0,0,0,0,0,1.0,0,0,La Ciudadela,0
10,5,1,0,0,0,0,0,1,0,0,0,1.0,0,0,La Ciudadela,0
10,3,0,0,0,0,0,0,0,1,0,0,1.0,0,0,La Ciudadela,0
10,3,0,0,2,0,0,0,0,0,0,0,0.0,0,0,La Ciudadela,1
11,5,0,0,1,0,1,0,0,0,0,0,0.0,0,0,La Ciudadela,0
11,6,1,0,1,0,0,0,0,0,0,0,1.0,0,0,La Ciudadela,0
11,4,0,0,1,0,1,0,0,0,0,0,0.0,0,0,La Ciudadela,0
11,3,0,0,0,0,2,0,0,0,0,0,0.0,0,0,La Ciudadela,0
11,3,1,0,1,0,0,0,0,0,0,0,1.0,0,0,La Ciudadela,0
11,4,1,0,1,0,0,0,0,0,0,0,1.0,0,0,La Ciudadela,0
11,6,2,0,0,0,1,0,0,0,0,0,1.0,0,0,La Ciudadela,0
11,3,0,0,1,0,0,0,0,0,0,0,1.0,0,0,La Ciudadela,0
11,3,0,0,0,0,1,0,0,0,0,0,1.0,0,0,La Ciudadela,0
11,4,1,0,0,0,0,0,0,0,0,0,1.0,0,1,La Ciudadela,0
12,6,1,0,1,0,0,0,0,0,0,0,1.0,0,0,La Ciudadela,0
12,6,1,1,1,0,0,0,0,0,0,0,0.0,0,0,La Ciudadela,0
12,5,1,1,0,0,0,0,0,0,0,0,1.0,0,0,La Ciudadela,0
12,4,1,0,1,0,0,0,0,0,0,0,1.0,0,0,La Ciudadela,1
12,7,0,0,2,0,0,0,0,0,0,0,0.0,0,0,La Ciudadela,1
12,1,1,0,1,0,0,0,0,0,0,0,1.0,0,0,La Ciudadela,1
12,3,1,0,1,0,0,0,0,0,0,0,1.0,0,0,La Ciudadela,0
12,5,0,0,1,0,0,0,0,0,0,0,0.0,0,0,La Ciudadela,1
12,4,0,0,1,0,0,0,0,0,0,0,1.0,0,0,La Ciudadela,0
1,4,0,0,0,1,0,0,0,0,0,0,1.0,0,0,La Ciudadela,0
1,4,0,0,1,0,0,0,0,1,0,0,0.0,0,0,La Ciudadela,0
1,2,1,0,0,0,0,0,0,0,0,0,1.0,0,0,La Ciudadela,0
1,4,1,1,0,0,0,0,0,0,0,0,1.0,0,0,La Ciudadela,1
1,5,0,0,1,0,0,0,0,0,0,0,1.0,0,0,La Ciudadela,0
1,1,0,0,0,0,1,0,0,0,0,0,1.0,0,0,La Ciudadela,0
1,6,0,0,0,0,0,0,0,0,1,0,0.0,0,0,La Ciudadela,0
2,7,1,0,0,0,0,0,0,0,0,0,2.0,0,0,La Ciudadela,1
2,2,1,0,1,0,0,0,0,0,0,0,1.0,0,0,La Ciudadela,0
2,2,0,0,0,0,1,0,0,0,0,0,1.0,0,0,La Ciudadela,1
2,2,0,0,1,0,0,0,0,0,0,0,1.0,0,0,La Ciudadela,0
2,2,0,0,2,0,1,0,0,0,0,0,0.0,0,0,La Ciudadela,1
2,3,1,0,0,0,0,0,0,0,0,0,2.0,0,0,La Ciudadela,0
2,1,1,1,0,0,0,0,0,0,0,0,1.0,0,0,La Ciudadela,0
2,2,1,0,0,0,0,0,1,0,0,0,1.0,0,0,La Ciudadela,0
2,2,1,0,1,0,0,0,0,0,0,0,1.0,0,0,La Ciudadela,1
2,4,1,0,1,0,0,0,0,0,0,0,1.0,0,0,La Ciudadela,0
2,6,1,0,1,0,0,0,0,0,0,0,1.0,0,0,La Ciudadela,1
2,1,1,0,1,0,0,0,0,0,0,0,0.0,0,0,La Ciudadela,0
3,6,0,0,1,0,0,0,1,0,0,0,0.0,0,0,La Ciudadela,0
3,6,0,0,2,0,0,0,0,0,0,0,0.0,0,0,La Ciudadela,0
3,1,1,0,1,0,0,0,0,0,0,0,1.0,0,0,La Ciudadela,0
3,3,0,0,1,0,0,0,0,0,0,0,1.0,0,0,La Ciudadela,0
4,1,0,0,3,0,0,0,0,0,0,0,1.0,0,0,La Ciudadela,1
4,2,1,1,0,0,0,0,0,0,0,0,1.0,0,0,La Ciudadela,0
4,4,0,0,1,0,0,0,0,0,0,0,0.0,0,0,La Ciudadela,0
4,3,1,0,1,0,0,0,0,0,0,0,1.0,0,0,La Ciudadela,0
4,4,1,1,1,0,0,0,0,0,0,0,0.0,0,0,La Ciudadela,0
4,2,1,0,1,0,0,0,0,0,0,0,1.0,0,0,La Ciudadela,0
5,1,0,0,2,0,0,0,0,0,0,0,0.0,0,0,La Ciudadela,1
5,1,0,0,1,0,0,0,0,0,0,0,1.0,0,0,La Ciudadela,0
5,3,0,0,1,0,0,0,0,1,0,0,0.0,0,0,La Ciudadela,0
5,3,1,1,0,0,0,0,0,0,0,0,1.0,0,0,La Ciudadela,0
5,4,1,0,0,0,0,0,0,0,0,0,2.0,0,0,La Ciudadela,0
6,1,0,0,1,0,0,0,0,0,0,0,1.0,0,0,La Ciudadela,0
6,5,1,1,0,0,0,0,0,0,0,0,1.0,0,0,La Ciudadela,0
6,6,1,0,1,0,0,0,0,0,0,0,1.0,0,0,La Ciudadela,0
6,7,1,0,0,0,1,0,0,0,0,0,1.0,0,0,La Ciudadela,0
6,7,1,0,0,0,0,0,0,0,0,0,2.0,0,0,La Ciudadela,1
6,2,1,0,0,0,1,0,0,0,0,0,1.0,0,0,La Ciudadela,1
6,2,0,0,1,0,0,0,0,0,1,0,0.0,0,0,La Ciudadela,0
6,6,0,0,0,0,1,0,0,0,1,0,0.0,0,0,La Ciudadela,1
7,6,1,1,0,0,0,0,0,0,0,0,0.0,1,0,La Ciudadela,1
7,4,1,1,0,1,0,0,0,0,0,0,0.0,0,0,La Ciudadela,1
7,2,1,1,1,0,0,0,0,0,0,0,0.0,0,0,La Ciudadela,1
8,2,0,0,1,0,1,0,0,0,0,0,0.0,0,0,La Ciudadela,0
8,2,0,0,1,0,0,0,1,0,0,0,0.0,0,0,La Ciudadela,1
8,3,0,0,1,0,1,0,0,0,0,0,0.0,0,0,La Ciudadela,0
8,4,1,0,1,0,0,0,0,0,0,0,1.0,0,0,La Ciudadela,1
8,4,1,0,0,0,0,0,0,0,0,0,1.0,0,0,La Ciudadela,1
8,2,0,0,1,0,0,0,0,0,0,0,1.0,0,0,La Ciudadela,0
8,3,1,0,2,0,0,0,0,0,0,0,1.0,0,0,La Ciudadela,0
8,5,1,0,0,0,0,1,0,0,0,0,1.0,0,0,La Ciudadela,1
8,1,0,0,1,0,1,0,0,0,0,0,0.0,0,0,La Ciudadela,1
8,2,1,0,1,0,0,0,0,0,0,0,1.0,0,0,La Ciudadela,0
8,3,1,0,0,0,1,0,0,0,0,0,1.0,0,0,La Ciudadela,1
8,2,1,0,1,0,0,0,0,0,0,0,1.0,0,0,La Ciudadela,0
9,1,1,1,0,0,0,0,0,0,0,0,1.0,0,0,La Ciudadela,0
9,3,0,0,0,0,1,1,0,0,0,0,0.0,0,0,La Ciudadela,0
9,4,1,1,0,0,0,0,0,0,0,0,1.0,0,0,La Ciudadela,0
9,2,1,0,2,1,0,0,0,0,0,0,0.0,0,0,La Ciudadela,0
9,3,0,0,0,0,1,1,0,0,0,0,0.0,0,0,La Ciudadela,0
9,5,0,0,2,0,0,0,0,0,0,0,0.0,0,0,La Ciudadela,0
9,6,0,0,0,0,0,0,2,0,0,0,0.0,0,0,La Ciudadela,0
9,1,1,0,3,0,0,0,0,0,0,0,0.0,0,0,La Ciudadela,1
9,2,1,0,1,0,0,0,0,0,0,0,1.0,0,0,La Ciudadela,0
9,6,1,1,0,0,0,0,0,0,0,0,1.0,0,0,La Ciudadela,0
10,4,0,0,1,0,1,0,0,0,0,0,0.0,0,0,La Ciudadela,0
10,7,1,0,1,0,0,0,0,0,0,0,1.0,0,0,La Ciudadela,1
10,2,0,0,1,0,0,0,0,0,0,0,0.0,1,0,La Ciudadela,0
10,2,1,0,0,0,1,0,0,0,0,0,1.0,0,0,La Ciudadela,0
10,3,0,0,2,0,0,0,0,0,0,0,0.0,0,0,La Ciudadela,0
11,5,1,1,0,0,0,0,0,0,0,0,1.0,0,0,La Ciudadela,1
11,6,1,0,0,0,0,0,0,0,0,0,1.0,0,0,La Ciudadela,1
11,2,0,0,2,0,0,0,0,0,0,0,0.0,1,0,La Ciudadela,0
11,1,0,0,0,0,0,0,0,0,1,0,0.0,0,0,La Ciudadela,1
11,6,0,0,2,0,0,0,0,0,0,0,0.0,0,0,La Ciudadela,0
11,4,0,0,2,0,0,0,0,0,0,0,0.0,0,0,La Ciudadela,0
11,5,0,0,0,0,1,0,0,1,0,0,0.0,0,0,La Ciudadela,0
1,5,0,0,0,0,0,0,0,1,1,0,0.0,0,0,La Ciudadela,0
1,1,0,0,2,0,0,0,0,0,0,0,0.0,0,0,La Ciudadela,0
1,3,1,0,0,0,0,0,1,0,0,0,1.0,0,0,La Ciudadela,0
1,4,1,0,0,0,0,0,0,0,0,0,2.0,0,0,La Ciudadela,0
1,7,1,0,0,0,0,0,0,0,0,0,1.0,0,0,La Ciudadela,0
1,2,0,0,0,0,1,0,0,1,0,0,0.0,0,0,La Ciudadela,1
1,3,0,0,0,0,2,0,0,0,0,0,0.0,0,0,La Ciudadela,0
1,4,0,0,3,0,0,0,0,0,0,0,0.0,0,0,La Ciudadela,0
2,4,1,0,0,0,0,0,0,0,0,0,2.0,0,0,La Ciudadela,0
2,6,0,0,1,0,0,0,0,0,0,0,0.0,0,0,La Ciudadela,1
2,6,1,0,0,0,1,0,0,0,0,0,1.0,0,0,La Ciudadela,0
2,7,2,0,1,0,0,0,0,0,0,0,1.0,0,0,La Ciudadela,0
2,2,0,0,1,0,0,0,1,0,0,0,0.0,0,0,La Ciudadela,0
3,4,1,0,0,0,2,0,0,0,0,0,0.0,0,0,La Ciudadela,0
3,7,1,1,0,0,0,0,0,0,0,0,1.0,0,0,La Ciudadela,1
3,3,0,0,2,0,0,0,0,0,0,0,0.0,0,0,La Ciudadela,0
3,5,1,1,0,0,0,0,0,0,0,0,1.0,0,0,La Ciudadela,1
3,1,1,0,1,0,0,0,0,0,0,0,1.0,0,0,La Ciudadela,0
3,3,1,0,1,0,0,0,0,0,0,0,1.0,0,0,La Ciudadela,0
3,3,0,0,2,0,0,0,0,0,0,0,0.0,0,0,La Ciudadela,0
3,4,1,0,0,0,1,0,0,0,0,0,1.0,0,0,La Ciudadela,1
3,2,0,0,0,0,1,0,0,0,0,0,1.0,0,0,La Ciudadela,1
3,3,1,2,0,0,0,0,0,0,0,0,1.0,0,0,La Ciudadela,0
4,3,0,0,1,0,0,1,0,0,0,0,0.0,0,0,La Ciudadela,0
4,4,0,0,1,0,0,0,0,0,1,0,0.0,0,0,La Ciudadela,0
4,7,1,0,1,0,0,0,0,0,0,0,1.0,0,0,La Ciudadela,1
4,2,1,0,0,0,0,0,0,0,0,0,1.0,0,0,La Ciudadela,0
4,2,0,0,1,0,0,0,0,0,0,0,1.0,0,0,La Ciudadela,0
4,2,0,0,2,0,0,0,0,0,0,0,0.0,0,0,La Ciudadela,0
4,3,1,0,1,0,0,0,0,0,0,0,1.0,0,0,La Ciudadela,0
4,1,1,0,0,0,0,0,0,0,0,0,2.0,0,0,La Ciudadela,1
4,7,1,1,0,0,0,0,0,0,0,0,1.0,0,0,La Ciudadela,1
4,3,0,0,1,1,0,0,0,0,0,0,0.0,0,0,La Ciudadela,0
5,5,1,0,1,0,0,0,0,0,0,0,0.0,0,0,La Ciudadela,1
5,5,0,0,0,0,2,0,0,0,0,0,0.0,0,0,La Ciudadela,0
5,6,1,0,1,0,0,0,0,0,0,0,1.0,0,0,La Ciudadela,0
5,5,1,1,0,0,0,0,0,0,0,0,1.0,0,0,La Ciudadela,0
5,5,1,0,0,0,0,0,0,0,1,0,1.0,0,0,La Ciudadela,0
5,1,2,0,0,0,0,0,0,0,0,0,1.0,0,0,La Ciudadela,1
5,3,0,0,0,1,1,0,0,0,0,0,0.0,0,0,La Ciudadela,0
5,3,0,0,2,0,0,0,0,0,0,0,0.0,0,0,La Ciudadela,0
6,4,1,0,0,0,0,0,0,0,0,0,1.0,0,0,La Ciudadela,1
6,5,0,0,2,0,0,0,0,0,0,0,0.0,0,0,La Ciudadela,1
6,6,0,0,1,0,0,0,0,0,0,0,0.0,0,0,La Ciudadela,1
6,7,2,0,0,0,0,0,0,0,0,0,1.0,0,0,La Ciudadela,0
6,5,1,0,0,0,0,0,0,0,0,0,2.0,0,0,La Ciudadela,0
6,5,0,0,2,0,0,0,0,0,0,0,0.0,0,0,La Ciudadela,1
6,5,0,0,1,0,1,0,0,0,0,0,0.0,0,0,La Ciudadela,1
6,1,1,1,0,0,0,0,0,0,0,0,1.0,0,0,La Ciudadela,0
6,1,1,0,0,0,1,0,0,0,0,0,1.0,0,0,La Ciudadela,0
7,3,0,0,1,0,0,0,1,0,0,0,0.0,0,0,La Ciudadela,0
7,7,0,0,2,0,0,0,0,0,0,0,0.0,0,0,La Ciudadela,0
7,1,1,0,0,0,0,0,0,0,0,0,1.0,0,0,La Ciudadela,1
7,3,1,0,1,0,0,0,0,0,0,0,1.0,0,0,La Ciudadela,0
8,3,1,0,0,0,0,0,0,1,0,0,1.0,0,0,La Ciudadela,0
8,5,1,0,0,0,0,0,0,0,0,0,1.0,1,0,La Ciudadela,0
8,7,0,0,2,0,0,0,0,0,0,0,0.0,0,0,La Ciudadela,0
8,5,1,0,1,0,0,0,0,0,0,0,1.0,0,0,La Ciudadela,0
8,7,1,1,0,0,0,0,0,0,0,0,1.0,0,0,La Ciudadela,0
8,4,0,0,1,0,0,1,0,0,0,0,0.0,0,0,La Ciudadela,0
9,1,0,0,1,0,0,0,0,0,0,0,0.0,0,0,La Ciudadela,0
9,2,1,1,0,1,0,0,0,0,0,0,0.0,0,0,La Ciudadela,1
9,2,1,0,1,0,0,0,0,0,0,0,1.0,0,0,La Ciudadela,1
9,7,1,1,0,0,0,0,1,0,0,0,0.0,0,0,La Ciudadela,0
9,1,1,0,1,1,1,0,0,0,0,0,0.0,0,0,La Ciudadela,0
